{
    "CacheThumbnail": false,
    "KPlugin": {
        "MimeTypes": [
            "application/vnd.apple.pkpass"
        ],
        "Name": "Tickets and boarding passes",
        "Name[ca@valencia]": "Entrades i targetes d'embarcament",
        "Name[ca]": "Entrades i passis d'embarcament",
        "Name[cs]": "Lístky a palubní letenky",
        "Name[de]": "Fahrkarten und Bordkarten",
        "Name[en_GB]": "Tickets and boarding passes",
        "Name[es]": "Billetes y tarjetas de embarque",
        "Name[fr]": "Billets et cartes d'embarquement",
        "Name[ia]": "Billetes e cartes de imbarcar",
        "Name[it]": "Biglietti e carte d'imbarco",
        "Name[ka]": "ბილეთები",
        "Name[nl]": "Tickets en boardingpassen",
        "Name[pl]": "Bilety i karty pokładowe",
        "Name[pt]": "Bilhetes e cartões de embarque",
        "Name[sk]": "Lístky a palubné vstupenky",
        "Name[sl]": "Vozovnice in vstopni kuponi",
        "Name[sv]": "Biljetter och boardingkort",
        "Name[tr]": "Biletler ve biniş kartları",
        "Name[uk]": "Квитки та посадкові талони",
        "Name[x-test]": "xxTickets and boarding passesxx"
    }
}
